Gaming Reduction Experiment - 3 Generate Synthetic Data
…
  dat

}

Show code (sim data example)

sim_data(n = 10, n_days = 10, effect_shape = "grow")

# A tibble: 100 × 20
      id   age gender     condition experimental_condition intercept_sq slope_sq
   <dbl> <dbl> <chr>      <fct>                      <dbl>        <dbl>    <dbl>
 1     1    18 non-binary control                        0        -2.17    0.023
 2     1    18 non-binary control                        0        -2.17    0.023
 3     1    18 non-binary control                        0        -2.17    0.023
 4     1    18 non-binary control                        0        -2.17    0.023
 5     1    18 non-binary control                        0        -2.17    0.023
 6     1    18 non-binary control                        0        -2.17    0.023
 7     1    18 non-binary control                        0        -2.17    0.023
 8     1    18 non-binary control                        0        -2.17    0.023
 9     1    18 non-binary control                        0        -2.17    0.023
10     1    18 non-binary control                        0        -2.17    0.023
# ℹ 90 more rows
# ℹ 13 more variables: intercept_play <dbl>, day <dbl>,
#   intervention_period <dbl>, intervention_active <lgl>, compliance <dbl>,
#   playtime <dbl>, effect_time <dbl>, baseline_playtime <dbl>,
#   reduction <dbl>, sigma <dbl>, e <dbl>, sleep_quality_raw <dbl>,
#   sleep_quality <dbl>
…
