Generate Synthetic Data
…
  dat

}

sim_data(n = 10, n_days = 10, effect_shape = "grow")

# A tibble: 100 × 20
      id   age gender condition experimental_condition intercept_sq slope_sq
   <dbl> <dbl> <chr>  <fct>                      <dbl>        <dbl>    <dbl>
 1     1    21 man    control                        0         1.22    0.004
 2     1    21 man    control                        0         1.22    0.004
 3     1    21 man    control                        0         1.22    0.004
 4     1    21 man    control                        0         1.22    0.004
 5     1    21 man    control                        0         1.22    0.004
 6     1    21 man    control                        0         1.22    0.004
 7     1    21 man    control                        0         1.22    0.004
 8     1    21 man    control                        0         1.22    0.004
 9     1    21 man    control                        0         1.22    0.004
10     1    21 man    control                        0         1.22    0.004
# ℹ 90 more rows
# ℹ 13 more variables: intercept_play <dbl>, day <dbl>,
#   intervention_period <dbl>, intervention_active <lgl>, compliance <dbl>,
#   playtime <dbl>, effect_time <dbl>, baseline_playtime <dbl>,
#   reduction <dbl>, sigma <dbl>, e <dbl>, sleep_quality_raw <dbl>,
#   sleep_quality <dbl>
…
